0,1,2,3
,,,
wind_direction,,,
module,,,
module,wind_direction,,
wind_speed,,,
wind_speed,wind_direction,,
wind_speed,module,,
wind_speed,module,wind_direction,
ambient,,,
ambient,wind_direction,,
ambient,module,,
ambient,module,wind_direction,
ambient,wind_speed,,
ambient,wind_speed,wind_direction,
ambient,wind_speed,module,
ambient,wind_speed,module,wind_direction
